{
    "users": [
        {
            "name": "",
            "userName": "",
            "mobile": "",
            "email": "",
            "lat": "",
            "lng": "",
            "created_date": "",
            "changed_date": ""
        }
    ],
    "track_numbers": [
        {
            "trackerId": "",
            "userId": "2"
        },
        {
            "trackerId": "",
            "userId": "3"
        }
    ]
}